	<svg xmlns="http://www.w3.org/2000/svg" viewBox="0 0 130.633 30">
		<g id="Logo_block" transform="translate(-144.367 -189.818)">
			<g id="Logo" transform="translate(144.317 189.812)">
				<path
					id="Tracé_13"
					data-name="Tracé 13"
					d="M28.491,26.385l-.046.057h0A13.771,13.771,0,0,1,27.5,27.5a13.476,13.476,0,1,1,.95-18l.044.054L32,6.742l-.058-.072a17.968,17.968,0,1,0-1.269,24,18.167,18.167,0,0,0,1.264-1.405h0L32,29.192l-3.508-2.806"
					transform="translate(0.05 0.039)"
					fill="#fff"
				/>
				<rect
					id="Rectangle_97"
					data-name="Rectangle 97"
					width="4.492"
					height="35.935"
					transform="translate(50.017 0.039)"
					fill="#fff"
				/>
				<rect
					id="Rectangle_98"
					data-name="Rectangle 98"
					width="5"
					height="36"
					transform="translate(125.683 0.006)"
					fill="#fff"
				/>
				<path
					id="Tracé_14"
					data-name="Tracé 14"
					d="M323.512,81.839a4.492,4.492,0,0,1-3.493-1.668l-6.676-8.233-2.892,3.568,6.071,7.487a8.985,8.985,0,0,0,6.988,3.337h1.5V81.839Z"
					transform="translate(-217.434 -50.357)"
					fill="#fff"
				/>
				<path
					id="Tracé_15"
					data-name="Tracé 15"
					d="M247.582,6.16l6.671,8.236,2.89-3.57-6.065-7.489A8.984,8.984,0,0,0,244.091,0h-1.5V4.492h1.5a4.492,4.492,0,0,1,3.493,1.668"
					transform="translate(-169.896 0.039)"
					fill="#fff"
				/>
				<path
					id="Tracé_16"
					data-name="Tracé 16"
					d="M242.966,35.5c-.12.149-.246.293-.374.438h5.8L277.471,0h-5.8Z"
					transform="translate(-169.896 0.039)"
					fill="#fff"
				/>
			</g>
		</g>
	</svg>
