<?xml version="1.0" encoding="utf-8"?>
<!-- Generator: Adobe Illustrator 27.1.0, SVG Export Plug-In . SVG Version: 6.00 Build 0)  -->
<svg version="1.1" id="Layer_2_00000124149759910175163790000010197232125005598631_"
	 xmlns="http://www.w3.org/2000/svg" xmlns:xlink="http://www.w3.org/1999/xlink" x="0px" y="0px" viewBox="0 0 43.4 75"
	 style="enable-background:new 0 0 43.4 75;" xml:space="preserve">
<style type="text/css">
	.st0{fill:#232323;}
</style>
<g id="AW">
	<path id="ray_icon" class="st0" d="M32.8,0L0,41.6h22.1L9.9,75l33.6-43.3H21.2L32.8,0z"/>
</g>
</svg>
