<?xml version="1.0" encoding="utf-8"?>
<!-- Generator: Adobe Illustrator 27.1.0, SVG Export Plug-In . SVG Version: 6.00 Build 0)  -->
<svg version="1.1" id="Layer_1" xmlns="http://www.w3.org/2000/svg" xmlns:xlink="http://www.w3.org/1999/xlink" x="0px" y="0px"
	 viewBox="0 0 1000 1000" style="enable-background:new 0 0 1000 1000;" xml:space="preserve">
<style type="text/css">
	.st0{fill:#232323;}
</style>
<g>
	<g>
		<path class="st0" d="M546.9,292.3L535.3,95.6C534.4,81.7,545.5,70,559.4,70h95c11.3,0,21.1,7.9,23.6,18.9l43.7,196.7
			c3.4,15.1-8.1,29.4-23.6,29.4h-127C558.3,315,547.7,305,546.9,292.3z"/>
		<path class="st0" d="M763.4,473.9l94.9,427.2c3.4,15.1-8.1,29.4-23.6,29.4H607.6c-12.8,0-23.4-10-24.1-22.7l-25.4-427.2
			c-0.8-13.9,10.2-25.6,24.1-25.6h157.6C751.2,455,761,462.9,763.4,473.9z"/>
	</g>
	<path class="st0" d="M953.7,332.5H47.1c-6.7,0-12.1,5.4-12.1,12.1v80.8c0,6.7,5.4,12.1,12.1,12.1h41.8c7.6,0,13.3,6.9,11.9,14.4
		l-14.5,76.2c-1.4,7.5,4.3,14.4,11.9,14.4h75.7c7.6,0,13.3-6.9,11.9-14.4l-14.5-76.2c-1.4-7.5,4.3-14.4,11.9-14.4h634.6
		c7.6,0,13.3,6.9,11.9,14.4l-14.5,76.2c-1.4,7.5,4.3,14.4,11.9,14.4h75.7c7.6,0,13.3-6.9,11.9-14.4l-14.5-76.2
		c-1.4-7.5,4.3-14.4,11.9-14.4h41.8c6.7,0,12.1-5.4,12.1-12.1v-80.8C965.8,337.9,960.4,332.5,953.7,332.5z"/>
	<g>
		<path class="st0" d="M453.9,292.3l11.7-196.7c0.8-13.9-10.2-25.6-24.1-25.6h-95c-11.3,0-21.1,7.9-23.6,18.9l-43.7,196.7
			c-3.4,15.1,8.1,29.4,23.6,29.4h127C442.6,315,453.1,305,453.9,292.3z"/>
		<path class="st0" d="M237.4,473.9l-94.9,427.2c-3.4,15.1,8.1,29.4,23.6,29.4h227.1c12.8,0,23.4-10,24.1-22.7l25.4-427.2
			c0.8-13.9-10.2-25.6-24.1-25.6H261C249.7,455,239.9,462.9,237.4,473.9z"/>
	</g>
</g>
</svg>
