<svg
		xmlns="http://www.w3.org/2000/svg"
		width="74"
		height="30"
		viewBox="0 0 74 30"
	>
		<path
			id="Tracé_20"
			data-name="Tracé 20"
			d="M349.66,21.924l-.038.047a11.2,11.2,0,1,1-.788-14.96,11.442,11.442,0,0,1,.79.878l.036.045L352.576,5.6l-.048-.06a14.93,14.93,0,1,0-1.054,19.944,15.045,15.045,0,0,0,1.05-1.168h0l.051-.063-2.914-2.331"
			transform="translate(-325.987 0)"
			fill="#252525"
		/>
		<rect
			id="Rectangle_99"
			data-name="Rectangle 99"
			width="3.733"
			height="29.859"
			transform="translate(30.321 0)"
			fill="#252525"
		/>
		<rect
			id="Rectangle_100"
			data-name="Rectangle 100"
			width="3.732"
			height="29.859"
			transform="translate(70.499 0)"
			fill="#252525"
		/>
		<path
			id="Tracé_21"
			data-name="Tracé 21"
			d="M534.876,73.067a3.733,3.733,0,0,1-2.9-1.386l-5.547-6.841-2.4,2.965,5.045,6.221a7.466,7.466,0,0,0,5.806,2.773h1.246V73.067Z"
			transform="translate(-469.352 -46.94)"
			fill="#252525"
		/>
		<path
			id="Tracé_22"
			data-name="Tracé 22"
			d="M467.006,5.118l5.543,6.844L474.951,9l-5.04-6.223A7.463,7.463,0,0,0,464.1,0h-1.246V3.732H464.1a3.732,3.732,0,0,1,2.9,1.386"
			transform="translate(-425.074 0)"
			fill="#252525"
		/>
		<path
			id="Tracé_23"
			data-name="Tracé 23"
			d="M463.171,29.495c-.1.123-.2.244-.311.364h4.817L491.841,0h-4.819Z"
			transform="translate(-425.074 0)"
			fill="#252525"
		/>
	</svg>